{
  "routes": [
    {
      "method": "GET",
      "path": "/employer-profiles",
      "handler": "employer-profile.find",
      "config": {
        "policies": []
      }
    },
    {
      "method": "GET",
      "path": "/employer-profiles/count",
      "handler": "employer-profile.count",
      "config": {
        "policies": []
      }
    },
    {
      "method": "GET",
      "path": "/employer-profiles/:id",
      "handler": "employer-profile.findOne",
      "config": {
        "policies": []
      }
    },
    {
      "method": "POST",
      "path": "/employer-profiles",
      "handler": "employer-profile.create",
      "config": {
        "policies": []
      }
    },
    {
      "method": "PUT",
      "path": "/employer-profiles/:id",
      "handler": "employer-profile.update",
      "config": {
        "policies": []
      }
    },
    {
      "method": "DELETE",
      "path": "/employer-profiles/:id",
      "handler": "employer-profile.delete",
      "config": {
        "policies": []
      }
    }
  ]
}
